fps,time2DecodeFile,time2DrawPNGs,totalFrames,totalTime,outputFile,outputSize
60,00:08,13:52,3600,14:19,El Constructor - Episodio 1_600x320_60fps_0-60_(3600f).mp4,28.328 Mb
48,00:08,11:04,2880,11:26,El Constructor - Episodio 1_600x320_48fps_0-60_(2880f).mp4,23.504 Mb
30,00:09,07:18,1800,07:42,El Constructor - Episodio 1_600x320_30fps_0-60_(1800f).mp4,16.058 Mb
25,00:09,06:59,1500,07:18,El Constructor - Episodio 1_600x320_25fps_0-60_(1500f).mp4,13.340 Mb
20,00:09,06:02,1200,06:21,El Constructor - Episodio 1_600x320_20fps_0-60_(1200f).mp4,11.696 Mb
15,00:09,04:07,900,04:23,El Constructor - Episodio 1_600x320_15fps_0-60_(900f).mp4,9.489 Mb
10,00:07,02:33,600,02:46,El Constructor - Episodio 1_600x320_10fps_0-60_(600f).mp4,7.176 Mb