fps,time2DecodeFile,time2DrawPNGs,totalFrames,totalTime,outputFile,outputSize
60,00:02,04:38,3600,04:47,el_constructor_avance_256x96_60fps_0-60_(3600f).mp4,10.304 Mb
48,00:02,03:43,2880,03:51,el_constructor_avance_256x96_48fps_0-60_(2880f).mp4,8.568 Mb
30,00:02,02:18,1800,02:24,el_constructor_avance_256x96_30fps_0-60_(1800f).mp4,6.023 Mb
25,00:02,01:56,1500,02:02,el_constructor_avance_256x96_25fps_0-60_(1500f).mp4,5.312 Mb
20,00:02,01:35,1200,01:40,el_constructor_avance_256x96_20fps_0-60_(1200f).mp4,4.590 Mb
15,00:02,01:08,900,01:13,el_constructor_avance_256x96_15fps_0-60_(900f).mp4,3.801 Mb
10,00:02,00:46,600,00:49,el_constructor_avance_256x96_10fps_0-60_(600f).mp4,2.943 Mb